^A:\MY_PROJECTS\CONAN\CONAN_VS\HELLO_VS\BUILD\GREET\X64\DEBUG\GREET.OBJ|A:\MY_PROJECTS\CONAN\CONAN_VS\HELLO_VS\BUILD\HELLOLIB\X64\DEBUG\HELLOLIB.LIB
/OUT:"A:\MY_PROJECTS\CONAN\CONAN_VS\HELLO_VS\BUILD\HELLOLIB\X64\DEBUG\GREET.EXE" /INCREMENTAL /NOLOGO KERNEL32.LIB USER32.LIB GDI32.LIB WINSPOOL.LIB COMDLG32.LIB ADVAPI32.LIB SHELL32.LIB OLE32.LIB OLEAUT32.LIB UUID.LIB ODBC32.LIB ODBCCP32.LIB /MANIFEST /MANIFESTUAC:"level='asInvoker' uiAccess='false'" /manifest:embed /DEBUG:FASTLINK /PDB:"A:\MY_PROJECTS\CONAN\CONAN_VS\HELLO_VS\BUILD\HELLOLIB\X64\DEBUG\GREET.PDB" /SUBSYSTEM:CONSOLE /TLBID:1 /DYNAMICBASE /NXCOMPAT /IMPLIB:"A:\MY_PROJECTS\CONAN\CONAN_VS\HELLO_VS\BUILD\HELLOLIB\X64\DEBUG\GREET.LIB" /MACHINE:X64 X64\DEBUG\GREET.OBJ
A:\MY_PROJECTS\CONAN\CONAN_VS\HELLO_VS\BUILD\HELLOLIB\X64\DEBUG\HELLOLIB.LIB
